Plotly
…
ny_noaa_data

## # A tibble: 23,361 × 9
##    id          year  month     day    prcp  snow  snwd  tmax  tmin
##    <chr>       <chr> <chr>     <chr> <int> <dbl> <dbl> <dbl> <dbl>
##  1 USC00308739 1981  January   06       13    13   203  -3.3 -16.1
##  2 USC00300063 1981  October   06        0     0     0  15.6   8.3
##  3 USC00303354 1981  June      01        0     0     0  23.3   3.9
##  4 USC00308625 1981  August    16      119     0     0  22.8  15.6
##  5 USC00306232 1981  January   31        0     0   152  -0.6 -17.8
##  6 USC00301974 1981  January   07       25    38    76  -1.1  -7.8
##  7 USC00301110 1981  September 14       38     0     0  25.6  10.6
##  8 USC00306164 1981  May       22        0     0     0  23.3   8.3
##  9 USC00303360 1981  September 23      201     0     0  11.1   4.4
## 10 USC00306184 1981  May       29        5     0     0  20    12.8
## # … with 23,351 more rows
…
